<?xml version="1.0" encoding="UTF-8" standalone="no"?>
<graphml xmlns="http://graphml.graphdrawing.org/xmlns" xmlns:xsi="http://www.w3.org/2001/XMLSchema-instance" xmlns:y="http://www.yworks.com/xml/graphml" xsi:schemaLocation="http://graphml.graphdrawing.org/xmlns http://www.yworks.com/xml/schema/graphml/1.0/ygraphml.xsd">
  <!--Created by yFiles for Java 2.7-->
  <key for="graphml" id="d0" yfiles.type="resources"/>
  <key attr.name="url" attr.type="string" for="node" id="d1"/>
  <key attr.name="description" attr.type="string" for="node" id="d2"/>
  <key for="node" id="d3" yfiles.type="nodegraphics"/>
  <key attr.name="url" attr.type="string" for="edge" id="d4"/>
  <key attr.name="description" attr.type="string" for="edge" id="d5"/>
  <key for="edge" id="d6" yfiles.type="edgegraphics"/>
  <graph edgedefault="directed" id="G">
    <node id="n0">
      <data key="d3">
        <y:ShapeNode>
          <y:Geometry height="104.41121686362055" width="233.4110206907194" x="888.888671875" y="159.22292579438"/>
          <y:Fill color="#3366FF" transparent="false"/>
          <y:BorderStyle color="#000000" type="line" width="1.0"/>
          <y:NodeLabel alignment="center" autoSizePolicy="content" fontFamily="Dialog" fontSize="12" fontStyle="plain" hasBackgroundColor="false" hasLineColor="false" height="62.8046875" modelName="internal" modelPosition="c" textColor="#000000" visible="true" width="171.4140625" x="30.9984790953597" y="20.803264681810276">{PREPEND_STATE}800
Landing
site:us
section:Admin/{CLASS_NAME}</y:NodeLabel>
          <y:Shape type="rectangle"/>
        </y:ShapeNode>
      </data>
    </node>
    <node id="n1">
      <data key="d3">
        <y:ShapeNode>
          <y:Geometry height="71.0" width="112.0" x="11.6982421875" y="81.2636532738095"/>
          <y:Fill color="#FFCC00" transparent="false"/>
          <y:BorderStyle color="#000000" type="line" width="1.0"/>
          <y:NodeLabel alignment="center" autoSizePolicy="content" fontFamily="Dialog" fontSize="12" fontStyle="plain" hasBackgroundColor="false" hasLineColor="false" height="33.40234375" modelName="internal" modelPosition="c" textColor="#000000" visible="true" width="135.396484375" x="-11.6982421875" y="18.798828125">{PREPEND_STATE}010
IsLoggedIn</y:NodeLabel>
          <y:Shape type="roundrectangle"/>
        </y:ShapeNode>
      </data>
    </node>
    <node id="n2">
      <data key="d3">
        <y:ShapeNode>
          <y:Geometry height="30.0" width="30.0" x="497.142578125" y="39.58508184523805"/>
          <y:Fill color="#00CCFF" transparent="false"/>
          <y:BorderStyle color="#000000" type="line" width="1.0"/>
          <y:NodeLabel alignment="center" autoSizePolicy="content" fontFamily="Dialog" fontSize="12" fontStyle="plain" hasBackgroundColor="false" hasLineColor="false" height="18.701171875" modelName="internal" modelPosition="c" textColor="#000000" visible="true" width="10.673828125" x="9.6630859375" y="5.6494140625">1</y:NodeLabel>
          <y:Shape type="ellipse"/>
        </y:ShapeNode>
      </data>
    </node>
    <node id="n3">
      <data key="d3">
        <y:ShapeNode>
          <y:Geometry height="53.21425964912271" width="249.45512185739346" x="387.41501719630327" y="149.58509487781976"/>
          <y:Fill color="#FFCC00" transparent="false"/>
          <y:BorderStyle color="#000000" type="line" width="1.0"/>
          <y:NodeLabel alignment="center" autoSizePolicy="content" fontFamily="Dialog" fontSize="12" fontStyle="plain" hasBackgroundColor="false" hasLineColor="false" height="48.103515625" modelName="internal" modelPosition="c" textColor="#000000" visible="true" width="348.14453125" x="-49.34470469630327" y="2.555372012061355">{PREPEND_STATE}011
IsMemberOf
roles:Administrator,{CLASS_NAME}Admin,View{CLASS_NAME}</y:NodeLabel>
          <y:Shape type="roundrectangle"/>
        </y:ShapeNode>
      </data>
    </node>
    <node id="n4">
      <data key="d3">
        <y:ShapeNode>
          <y:Geometry height="30.0" width="30.0" x="990.5941822203597" y="49.222581845238096"/>
          <y:Fill color="#00CCFF" transparent="false"/>
          <y:BorderStyle color="#000000" type="line" width="1.0"/>
          <y:NodeLabel alignment="center" autoSizePolicy="content" fontFamily="Dialog" fontSize="12" fontStyle="plain" hasBackgroundColor="false" hasLineColor="false" height="18.701171875" modelName="internal" modelPosition="c" textColor="#000000" visible="true" width="17.34765625" x="6.326171875" y="5.6494140625">92</y:NodeLabel>
          <y:Shape type="ellipse"/>
        </y:ShapeNode>
      </data>
    </node>
    <node id="n5">
      <data key="d3">
        <y:ShapeNode>
          <y:Geometry height="104.41121686362055" width="233.4110206907194" x="2608.4234533582458" y="227.9459416673958"/>
          <y:Fill color="#3366FF" transparent="false"/>
          <y:BorderStyle color="#000000" type="line" width="1.0"/>
          <y:NodeLabel alignment="center" autoSizePolicy="content" fontFamily="Dialog" fontSize="12" fontStyle="plain" hasBackgroundColor="false" hasLineColor="false" height="62.8046875" modelName="internal" modelPosition="c" textColor="#000000" visible="true" width="171.4140625" x="30.99847909535947" y="20.803264681810276">{PREPEND_STATE}801
Thumbnails
site:us
section:Admin/{CLASS_NAME}</y:NodeLabel>
          <y:Shape type="rectangle"/>
        </y:ShapeNode>
      </data>
    </node>
    <node id="n6">
      <data key="d3">
        <y:ShapeNode>
          <y:Geometry height="71.0" width="112.0" x="1332.6639503782194" y="149.82575644841268"/>
          <y:Fill color="#FFCC00" transparent="false"/>
          <y:BorderStyle color="#000000" type="line" width="1.0"/>
          <y:NodeLabel alignment="center" autoSizePolicy="content" fontFamily="Dialog" fontSize="12" fontStyle="plain" hasBackgroundColor="false" hasLineColor="false" height="33.40234375" modelName="internal" modelPosition="c" textColor="#000000" visible="true" width="135.396484375" x="-11.6982421875" y="18.798828125">{PREPEND_STATE}020
IsLoggedIn</y:NodeLabel>
          <y:Shape type="roundrectangle"/>
        </y:ShapeNode>
      </data>
    </node>
    <node id="n7">
      <data key="d3">
        <y:ShapeNode>
          <y:Geometry height="30.0" width="30.0" x="1818.1082863157194" y="48.718613591269786"/>
          <y:Fill color="#00CCFF" transparent="false"/>
          <y:BorderStyle color="#000000" type="line" width="1.0"/>
          <y:NodeLabel alignment="center" autoSizePolicy="content" fontFamily="Dialog" fontSize="12" fontStyle="plain" hasBackgroundColor="false" hasLineColor="false" height="18.701171875" modelName="internal" modelPosition="c" textColor="#000000" visible="true" width="10.673828125" x="9.6630859375" y="5.6494140625">1</y:NodeLabel>
          <y:Shape type="ellipse"/>
        </y:ShapeNode>
      </data>
    </node>
    <node id="n8">
      <data key="d3">
        <y:ShapeNode>
          <y:Geometry height="82.47736082474226" width="173.21946391752567" x="2149.85438006572" y="144.0870760360416"/>
          <y:Fill color="#FFCC00" transparent="false"/>
          <y:BorderStyle color="#000000" type="line" width="1.0"/>
          <y:NodeLabel alignment="center" autoSizePolicy="content" fontFamily="Dialog" fontSize="12" fontStyle="plain" hasBackgroundColor="false" hasLineColor="false" height="33.40234375" modelName="internal" modelPosition="c" textColor="#000000" visible="true" width="135.396484375" x="18.91148977126295" y="24.53750853737114">{PREPEND_STATE}022
Get{CLASS_NAME}</y:NodeLabel>
          <y:Shape type="roundrectangle"/>
        </y:ShapeNode>
      </data>
    </node>
    <node id="n9">
      <data key="d3">
        <y:ShapeNode>
          <y:Geometry height="30.0" width="30.0" x="2710.128963703605" y="117.94559771825391"/>
          <y:Fill color="#00CCFF" transparent="false"/>
          <y:BorderStyle color="#000000" type="line" width="1.0"/>
          <y:NodeLabel alignment="center" autoSizePolicy="content" fontFamily="Dialog" fontSize="12" fontStyle="plain" hasBackgroundColor="false" hasLineColor="false" height="18.701171875" modelName="internal" modelPosition="c" textColor="#000000" visible="true" width="17.34765625" x="6.326171875" y="5.6494140625">93</y:NodeLabel>
          <y:Shape type="ellipse"/>
        </y:ShapeNode>
      </data>
    </node>
    <node id="n10">
      <data key="d3">
        <y:ShapeNode>
          <y:Geometry height="53.21425964912271" width="233.12656995705993" x="1716.5450013371897" y="158.71862662385138"/>
          <y:Fill color="#FFCC00" transparent="false"/>
          <y:BorderStyle color="#000000" type="line" width="1.0"/>
          <y:NodeLabel alignment="center" autoSizePolicy="content" fontFamily="Dialog" fontSize="12" fontStyle="plain" hasBackgroundColor="false" hasLineColor="false" height="48.103515625" modelName="internal" modelPosition="c" textColor="#000000" visible="true" width="348.14453125" x="-57.508980646470036" y="2.555372012061355">{PREPEND_STATE}021
IsMemberOf
roles:Administrator,{CLASS_NAME}Admin,View{CLASS_NAME}</y:NodeLabel>
          <y:Shape type="roundrectangle"/>
        </y:ShapeNode>
      </data>
    </node>
    <node id="n11">
      <data key="d3">
        <y:ShapeNode>
          <y:Geometry height="104.41121686362055" width="233.4110206907194" x="4505.6291332789915" y="707.7181638896183"/>
          <y:Fill color="#3366FF" transparent="false"/>
          <y:BorderStyle color="#000000" type="line" width="1.0"/>
          <y:NodeLabel alignment="center" autoSizePolicy="content" fontFamily="Dialog" fontSize="12" fontStyle="plain" hasBackgroundColor="false" hasLineColor="false" height="62.8046875" modelName="internal" modelPosition="c" textColor="#000000" visible="true" width="171.4140625" x="30.99847909535947" y="20.80326468181022">{PREPEND_STATE}802
Edit
site:us
section:Admin/{CLASS_NAME}</y:NodeLabel>
          <y:Shape type="rectangle"/>
        </y:ShapeNode>
      </data>
    </node>
    <node id="n12">
      <data key="d3">
        <y:ShapeNode>
          <y:Geometry height="82.47736082474226" width="173.21946391752567" x="4057.724122486465" y="383.44005222651776"/>
          <y:Fill color="#FFCC00" transparent="false"/>
          <y:BorderStyle color="#000000" type="line" width="1.0"/>
          <y:NodeLabel alignment="center" autoSizePolicy="content" fontFamily="Dialog" fontSize="12" fontStyle="plain" hasBackgroundColor="false" hasLineColor="false" height="33.40234375" modelName="internal" modelPosition="c" textColor="#000000" visible="true" width="135.396484375" x="18.91148977126295" y="24.53750853737114">{PREPEND_STATE}042
Get{CLASS_NAME}</y:NodeLabel>
          <y:Shape type="roundrectangle"/>
        </y:ShapeNode>
      </data>
    </node>
    <node id="n13">
      <data key="d3">
        <y:ShapeNode>
          <y:Geometry height="30.0" width="30.0" x="4607.334643624351" y="407.5332961309523"/>
          <y:Fill color="#00CCFF" transparent="false"/>
          <y:BorderStyle color="#000000" type="line" width="1.0"/>
          <y:NodeLabel alignment="center" autoSizePolicy="content" fontFamily="Dialog" fontSize="12" fontStyle="plain" hasBackgroundColor="false" hasLineColor="false" height="18.701171875" modelName="internal" modelPosition="c" textColor="#000000" visible="true" width="17.34765625" x="6.326171875" y="5.6494140625">93</y:NodeLabel>
          <y:Shape type="ellipse"/>
        </y:ShapeNode>
      </data>
    </node>
    <node id="n14">
      <data key="d3">
        <y:ShapeNode>
          <y:Geometry height="71.0" width="112.0" x="3173.188966236465" y="401.75869295634914"/>
          <y:Fill color="#FFCC00" transparent="false"/>
          <y:BorderStyle color="#000000" type="line" width="1.0"/>
          <y:NodeLabel alignment="center" autoSizePolicy="content" fontFamily="Dialog" fontSize="12" fontStyle="plain" hasBackgroundColor="false" hasLineColor="false" height="33.40234375" modelName="internal" modelPosition="c" textColor="#000000" visible="true" width="135.396484375" x="-11.6982421875" y="18.798828125">{PREPEND_STATE}040
IsLoggedIn</y:NodeLabel>
          <y:Shape type="roundrectangle"/>
        </y:ShapeNode>
      </data>
    </node>
    <node id="n15">
      <data key="d3">
        <y:ShapeNode>
          <y:Geometry height="30.0" width="30.0" x="3663.637208423965" y="526.115835813492"/>
          <y:Fill color="#00CCFF" transparent="false"/>
          <y:BorderStyle color="#000000" type="line" width="1.0"/>
          <y:NodeLabel alignment="center" autoSizePolicy="content" fontFamily="Dialog" fontSize="12" fontStyle="plain" hasBackgroundColor="false" hasLineColor="false" height="18.701171875" modelName="internal" modelPosition="c" textColor="#000000" visible="true" width="10.673828125" x="9.6630859375" y="5.6494140625">1</y:NodeLabel>
          <y:Shape type="ellipse"/>
        </y:ShapeNode>
      </data>
    </node>
    <node id="n16">
      <data key="d3">
        <y:ShapeNode>
          <y:Geometry height="53.21425964912271" width="248.883232967577" x="3554.1955919401767" y="392.9015631317877"/>
          <y:Fill color="#FFCC00" transparent="false"/>
          <y:BorderStyle color="#000000" type="line" width="1.0"/>
          <y:NodeLabel alignment="center" autoSizePolicy="content" fontFamily="Dialog" fontSize="12" fontStyle="plain" hasBackgroundColor="false" hasLineColor="false" height="48.103515625" modelName="internal" modelPosition="c" textColor="#000000" visible="true" width="342.8125" x="-46.96463351621151" y="2.555372012061355">{PREPEND_STATE}041
IsMemberOf
roles:Administrator,{CLASS_NAME}Admin,Edit{CLASS_NAME}</y:NodeLabel>
          <y:Shape type="roundrectangle"/>
        </y:ShapeNode>
      </data>
    </node>
    <node id="n17">
      <data key="d3">
        <y:ShapeNode>
          <y:Geometry height="30.0" width="30.0" x="4129.333854445229" y="545.9176215277778"/>
          <y:Fill color="#00CCFF" transparent="false"/>
          <y:BorderStyle color="#000000" type="line" width="1.0"/>
          <y:NodeLabel alignment="center" autoSizePolicy="content" fontFamily="Dialog" fontSize="12" fontStyle="plain" hasBackgroundColor="false" hasLineColor="false" height="18.701171875" modelName="internal" modelPosition="c" textColor="#000000" visible="true" width="17.34765625" x="6.326171875" y="5.6494140625">92</y:NodeLabel>
          <y:Shape type="ellipse"/>
        </y:ShapeNode>
      </data>
    </node>
    <node id="n18">
      <data key="d3">
        <y:ShapeNode>
          <y:Geometry height="82.47736082474226" width="221.8466775884242" x="7449.220364933097" y="511.3025522265177"/>
          <y:Fill color="#FFCC00" transparent="false"/>
          <y:BorderStyle color="#000000" type="line" width="1.0"/>
          <y:NodeLabel alignment="center" autoSizePolicy="content" fontFamily="Dialog" fontSize="12" fontStyle="plain" hasBackgroundColor="false" hasLineColor="false" height="33.40234375" modelName="internal" modelPosition="c" textColor="#000000" visible="true" width="212.775390625" x="4.5356434817122135" y="24.53750853737108">{PREPEND_STATE}065
Populate{CLASS_NAME}FromRequest</y:NodeLabel>
          <y:Shape type="roundrectangle"/>
        </y:ShapeNode>
      </data>
    </node>
    <node id="n19">
      <data key="d3">
        <y:ShapeNode>
          <y:Geometry height="30.0" width="30.0" x="7945.681657292784" y="516.9221850198412"/>
          <y:Fill color="#00CCFF" transparent="false"/>
          <y:BorderStyle color="#000000" type="line" width="1.0"/>
          <y:NodeLabel alignment="center" autoSizePolicy="content" fontFamily="Dialog" fontSize="12" fontStyle="plain" hasBackgroundColor="false" hasLineColor="false" height="18.701171875" modelName="internal" modelPosition="c" textColor="#000000" visible="true" width="17.34765625" x="6.326171875" y="5.6494140625">93</y:NodeLabel>
          <y:Shape type="ellipse"/>
        </y:ShapeNode>
      </data>
    </node>
    <node id="n20">
      <data key="d3">
        <y:ShapeNode>
          <y:Geometry height="71.0" width="112.0" x="5167.891021604378" y="724.4237723214285"/>
          <y:Fill color="#FFCC00" transparent="false"/>
          <y:BorderStyle color="#000000" type="line" width="1.0"/>
          <y:NodeLabel alignment="center" autoSizePolicy="content" fontFamily="Dialog" fontSize="12" fontStyle="plain" hasBackgroundColor="false" hasLineColor="false" height="33.40234375" modelName="internal" modelPosition="c" textColor="#000000" visible="true" width="135.396484375" x="-11.6982421875" y="18.798828125">{PREPEND_STATE}060
IsLoggedIn</y:NodeLabel>
          <y:Shape type="roundrectangle"/>
        </y:ShapeNode>
      </data>
    </node>
    <node id="n21">
      <data key="d3">
        <y:ShapeNode>
          <y:Geometry height="30.0" width="30.0" x="5650.669341916877" y="766.374962797619"/>
          <y:Fill color="#00CCFF" transparent="false"/>
          <y:BorderStyle color="#000000" type="line" width="1.0"/>
          <y:NodeLabel alignment="center" autoSizePolicy="content" fontFamily="Dialog" fontSize="12" fontStyle="plain" hasBackgroundColor="false" hasLineColor="false" height="18.701171875" modelName="internal" modelPosition="c" textColor="#000000" visible="true" width="10.673828125" x="9.6630859375" y="5.6494140625">1</y:NodeLabel>
          <y:Shape type="ellipse"/>
        </y:ShapeNode>
      </data>
    </node>
    <node id="n22">
      <data key="d3">
        <y:ShapeNode>
          <y:Geometry height="53.21425964912271" width="225.25813628834976" x="5553.040273772702" y="633.1606901159148"/>
          <y:Fill color="#FFCC00" transparent="false"/>
          <y:BorderStyle color="#000000" type="line" width="1.0"/>
          <y:NodeLabel alignment="center" autoSizePolicy="content" fontFamily="Dialog" fontSize="12" fontStyle="plain" hasBackgroundColor="false" hasLineColor="false" height="48.103515625" modelName="internal" modelPosition="c" textColor="#000000" visible="true" width="342.8125" x="-58.77718185582489" y="2.555372012061298">{PREPEND_STATE}061
IsMemberOf
roles:Administrator,{CLASS_NAME}Admin,Edit{CLASS_NAME}</y:NodeLabel>
          <y:Shape type="roundrectangle"/>
        </y:ShapeNode>
      </data>
    </node>
    <node id="n23">
      <data key="d3">
        <y:ShapeNode>
          <y:Geometry height="30.0" width="30.0" x="6208.171337428025" y="696.618216765873"/>
          <y:Fill color="#00CCFF" transparent="false"/>
          <y:BorderStyle color="#000000" type="line" width="1.0"/>
          <y:NodeLabel alignment="center" autoSizePolicy="content" fontFamily="Dialog" fontSize="12" fontStyle="plain" hasBackgroundColor="false" hasLineColor="false" height="18.701171875" modelName="internal" modelPosition="c" textColor="#000000" visible="true" width="17.34765625" x="6.326171875" y="5.6494140625">92</y:NodeLabel>
          <y:Shape type="ellipse"/>
        </y:ShapeNode>
      </data>
    </node>
    <node id="n24">
      <data key="d3">
        <y:ShapeNode>
          <y:Geometry height="82.47736082474226" width="173.21946391752567" x="7874.071925334021" y="657.2138617503272"/>
          <y:Fill color="#FFCC00" transparent="false"/>
          <y:BorderStyle color="#000000" type="line" width="1.0"/>
          <y:NodeLabel alignment="center" autoSizePolicy="content" fontFamily="Dialog" fontSize="12" fontStyle="plain" hasBackgroundColor="false" hasLineColor="false" height="33.40234375" modelName="internal" modelPosition="c" textColor="#000000" visible="true" width="135.396484375" x="18.911489771262495" y="24.53750853737108">{PREPEND_STATE}066
Save{CLASS_NAME}</y:NodeLabel>
          <y:Shape type="roundrectangle"/>
        </y:ShapeNode>
      </data>
    </node>
    <node id="n25">
      <data key="d3">
        <y:ShapeNode>
          <y:Geometry height="30.0" width="30.0" x="8388.237058710309" y="662.8334945436507"/>
          <y:Fill color="#00CCFF" transparent="false"/>
          <y:BorderStyle color="#000000" type="line" width="1.0"/>
          <y:NodeLabel alignment="center" autoSizePolicy="content" fontFamily="Dialog" fontSize="12" fontStyle="plain" hasBackgroundColor="false" hasLineColor="false" height="18.701171875" modelName="internal" modelPosition="c" textColor="#000000" visible="true" width="17.34765625" x="6.326171875" y="5.6494140625">93</y:NodeLabel>
          <y:Shape type="ellipse"/>
        </y:ShapeNode>
      </data>
    </node>
    <node id="n26">
      <data key="d3">
        <y:ShapeNode>
          <y:Geometry height="82.47736082474226" width="173.21946391752567" x="6555.940911064174" y="531.9219966709621"/>
          <y:Fill color="#FFCC00" transparent="false"/>
          <y:BorderStyle color="#000000" type="line" width="1.0"/>
          <y:NodeLabel alignment="center" autoSizePolicy="content" fontFamily="Dialog" fontSize="12" fontStyle="plain" hasBackgroundColor="false" hasLineColor="false" height="33.40234375" modelName="internal" modelPosition="c" textColor="#000000" visible="true" width="135.396484375" x="18.911489771262495" y="24.53750853737108">{PREPEND_STATE}063
Get{CLASS_NAME}</y:NodeLabel>
          <y:Shape type="roundrectangle"/>
        </y:ShapeNode>
      </data>
    </node>
    <node id="n27">
      <data key="d3">
        <y:ShapeNode>
          <y:Geometry height="30.0" width="30.0" x="7047.695741051148" y="651.8618675595237"/>
          <y:Fill color="#00CCFF" transparent="false"/>
          <y:BorderStyle color="#000000" type="line" width="1.0"/>
          <y:NodeLabel alignment="center" autoSizePolicy="content" fontFamily="Dialog" fontSize="12" fontStyle="plain" hasBackgroundColor="false" hasLineColor="false" height="18.701171875" modelName="internal" modelPosition="c" textColor="#000000" visible="true" width="17.34765625" x="6.326171875" y="5.6494140625">93</y:NodeLabel>
          <y:Shape type="ellipse"/>
        </y:ShapeNode>
      </data>
    </node>
    <node id="n28">
      <data key="d3">
        <y:ShapeNode>
          <y:Geometry height="71.0" width="173.2194639175259" x="8316.627326751546" y="803.124962797619"/>
          <y:Fill color="#FFCC00" transparent="false"/>
          <y:BorderStyle color="#000000" type="line" width="1.0"/>
          <y:NodeLabel alignment="center" autoSizePolicy="content" fontFamily="Dialog" fontSize="12" fontStyle="plain" hasBackgroundColor="false" hasLineColor="false" height="62.8046875" modelName="internal" modelPosition="c" textColor="#000000" visible="true" width="158.728515625" x="7.245474146262495" y="4.09765625">{PREPEND_STATE}067
SetError
name:SetError-SaveSuccess
errorId:1</y:NodeLabel>
          <y:Shape type="roundrectangle"/>
        </y:ShapeNode>
      </data>
    </node>
    <node id="n29">
      <data key="d3">
        <y:ShapeNode>
          <y:Geometry height="82.47736082474226" width="234.37737276389703" x="6945.5070546691995" y="430.68310778207325"/>
          <y:Fill color="#FFCC00" transparent="false"/>
          <y:BorderStyle color="#000000" type="line" width="1.0"/>
          <y:NodeLabel alignment="center" autoSizePolicy="content" fontFamily="Dialog" fontSize="12" fontStyle="plain" hasBackgroundColor="false" hasLineColor="false" height="33.40234375" modelName="internal" modelPosition="c" textColor="#000000" visible="true" width="201.419921875" x="16.478725444448173" y="24.53750853737114">{PREPEND_STATE}064
Create{CLASS_NAME}FromRequest</y:NodeLabel>
          <y:Shape type="roundrectangle"/>
        </y:ShapeNode>
      </data>
    </node>
    <node id="n30">
      <data key="d3">
        <y:ShapeNode>
          <y:Geometry height="71.0" width="112.0" x="3173.188966236465" y="633.365835813492"/>
          <y:Fill color="#FFCC00" transparent="false"/>
          <y:BorderStyle color="#000000" type="line" width="1.0"/>
          <y:NodeLabel alignment="center" autoSizePolicy="content" fontFamily="Dialog" fontSize="12" fontStyle="plain" hasBackgroundColor="false" hasLineColor="false" height="33.40234375" modelName="internal" modelPosition="c" textColor="#000000" visible="true" width="135.396484375" x="-11.6982421875" y="18.798828125">{PREPEND_STATE}050
IsLoggedIn</y:NodeLabel>
          <y:Shape type="roundrectangle"/>
        </y:ShapeNode>
      </data>
    </node>
    <node id="n31">
      <data key="d3">
        <y:ShapeNode>
          <y:Geometry height="53.21425964912271" width="269.9375950294425" x="3543.668410909244" y="746.1158488460735"/>
          <y:Fill color="#FFCC00" transparent="false"/>
          <y:BorderStyle color="#000000" type="line" width="1.0"/>
          <y:NodeLabel alignment="center" autoSizePolicy="content" fontFamily="Dialog" fontSize="12" fontStyle="plain" hasBackgroundColor="false" hasLineColor="false" height="48.103515625" modelName="internal" modelPosition="c" textColor="#000000" visible="true" width="358.15234375" x="-44.107374360278754" y="2.555372012061298">{PREPEND_STATE}051
IsMemberOf
roles:Administrator,{CLASS_NAME}Admin,Create{CLASS_NAME}</y:NodeLabel>
          <y:Shape type="roundrectangle"/>
        </y:ShapeNode>
      </data>
    </node>
    <node id="n32">
      <data key="d3">
        <y:ShapeNode>
          <y:Geometry height="30.0" width="30.0" x="3663.637208423965" y="636.115835813492"/>
          <y:Fill color="#00CCFF" transparent="false"/>
          <y:BorderStyle color="#000000" type="line" width="1.0"/>
          <y:NodeLabel alignment="center" autoSizePolicy="content" fontFamily="Dialog" fontSize="12" fontStyle="plain" hasBackgroundColor="false" hasLineColor="false" height="18.701171875" modelName="internal" modelPosition="c" textColor="#000000" visible="true" width="10.673828125" x="9.6630859375" y="5.6494140625">1</y:NodeLabel>
          <y:Shape type="ellipse"/>
        </y:ShapeNode>
      </data>
    </node>
    <node id="n33">
      <data key="d3">
        <y:ShapeNode>
          <y:Geometry height="30.0" width="30.0" x="4129.333854445229" y="696.0261532738094"/>
          <y:Fill color="#00CCFF" transparent="false"/>
          <y:BorderStyle color="#000000" type="line" width="1.0"/>
          <y:NodeLabel alignment="center" autoSizePolicy="content" fontFamily="Dialog" fontSize="12" fontStyle="plain" hasBackgroundColor="false" hasLineColor="false" height="18.701171875" modelName="internal" modelPosition="c" textColor="#000000" visible="true" width="17.34765625" x="6.326171875" y="5.6494140625">92</y:NodeLabel>
          <y:Shape type="ellipse"/>
        </y:ShapeNode>
      </data>
    </node>
    <node id="n34">
      <data key="d3">
        <y:ShapeNode>
          <y:Geometry height="57.943627730294395" width="246.8438347722972" x="6099.749420041877" y="558.6745775039004"/>
          <y:Fill color="#FFCC00" transparent="false"/>
          <y:BorderStyle color="#000000" type="line" width="1.0"/>
          <y:NodeLabel alignment="center" autoSizePolicy="content" fontFamily="Dialog" fontSize="12" fontStyle="plain" hasBackgroundColor="false" hasLineColor="false" height="48.103515625" modelName="internal" modelPosition="c" textColor="#000000" visible="true" width="201.408203125" x="22.71781582364838" y="4.920056052647169">{PREPEND_STATE}062
ValidateRequest
validatorName:{CLASS_NAME}Form</y:NodeLabel>
          <y:Shape type="roundrectangle"/>
        </y:ShapeNode>
      </data>
    </node>
    <node id="n35">
      <data key="d3">
        <y:ShapeNode>
          <y:Geometry height="30.0" width="30.0" x="6627.550643022937" y="694.3995659722221"/>
          <y:Fill color="#00CCFF" transparent="false"/>
          <y:BorderStyle color="#000000" type="line" width="1.0"/>
          <y:NodeLabel alignment="center" autoSizePolicy="content" fontFamily="Dialog" fontSize="12" fontStyle="plain" hasBackgroundColor="false" hasLineColor="false" height="18.701171875" modelName="internal" modelPosition="c" textColor="#000000" visible="true" width="17.34765625" x="6.326171875" y="5.6494140625">93</y:NodeLabel>
          <y:Shape type="ellipse"/>
        </y:ShapeNode>
      </data>
    </node>
    <node id="n36">
      <data key="d3">
        <y:ShapeNode>
          <y:Geometry height="71.0" width="112.0" x="3173.188966236465" y="244.65155009920625"/>
          <y:Fill color="#FFCC00" transparent="false"/>
          <y:BorderStyle color="#000000" type="line" width="1.0"/>
          <y:NodeLabel alignment="center" autoSizePolicy="content" fontFamily="Dialog" fontSize="12" fontStyle="plain" hasBackgroundColor="false" hasLineColor="false" height="33.40234375" modelName="internal" modelPosition="c" textColor="#000000" visible="true" width="135.396484375" x="-11.6982421875" y="18.798828125">{PREPEND_STATE}030
IsLoggedIn</y:NodeLabel>
          <y:Shape type="roundrectangle"/>
        </y:ShapeNode>
      </data>
    </node>
    <node id="n37">
      <data key="d3">
        <y:ShapeNode>
          <y:Geometry height="30.0" width="30.0" x="3663.637208423965" y="282.90155009920625"/>
          <y:Fill color="#00CCFF" transparent="false"/>
          <y:BorderStyle color="#000000" type="line" width="1.0"/>
          <y:NodeLabel alignment="center" autoSizePolicy="content" fontFamily="Dialog" fontSize="12" fontStyle="plain" hasBackgroundColor="false" hasLineColor="false" height="18.701171875" modelName="internal" modelPosition="c" textColor="#000000" visible="true" width="10.673828125" x="9.6630859375" y="5.6494140625">1</y:NodeLabel>
          <y:Shape type="ellipse"/>
        </y:ShapeNode>
      </data>
    </node>
    <node id="n38">
      <data key="d3">
        <y:ShapeNode>
          <y:Geometry height="82.47736082474226" width="173.21946391752567" x="4057.724122486465" y="135.0557268296924"/>
          <y:Fill color="#FFCC00" transparent="false"/>
          <y:BorderStyle color="#000000" type="line" width="1.0"/>
          <y:NodeLabel alignment="center" autoSizePolicy="content" fontFamily="Dialog" fontSize="12" fontStyle="plain" hasBackgroundColor="false" hasLineColor="false" height="33.40234375" modelName="internal" modelPosition="c" textColor="#000000" visible="true" width="135.396484375" x="18.91148977126295" y="24.53750853737114">{PREPEND_STATE}032
Get{CLASS_NAME}</y:NodeLabel>
          <y:Shape type="roundrectangle"/>
        </y:ShapeNode>
      </data>
    </node>
    <node id="n39">
      <data key="d3">
        <y:ShapeNode>
          <y:Geometry height="53.21425964912271" width="233.12656995705993" x="3562.073923445435" y="149.68727741750217"/>
          <y:Fill color="#FFCC00" transparent="false"/>
          <y:BorderStyle color="#000000" type="line" width="1.0"/>
          <y:NodeLabel alignment="center" autoSizePolicy="content" fontFamily="Dialog" fontSize="12" fontStyle="plain" hasBackgroundColor="false" hasLineColor="false" height="48.103515625" modelName="internal" modelPosition="c" textColor="#000000" visible="true" width="356.822265625" x="-61.84784783397026" y="2.555372012061355">{PREPEND_STATE}031
IsMemberOf
roles:Administrator,{CLASS_NAME}Admin,Delete{CLASS_NAME}</y:NodeLabel>
          <y:Shape type="roundrectangle"/>
        </y:ShapeNode>
      </data>
    </node>
    <node id="n40">
      <data key="d3">
        <y:ShapeNode>
          <y:Geometry height="82.47736082474226" width="173.21946391752567" x="4535.7249116655885" y="245.0557268296924"/>
          <y:Fill color="#FFCC00" transparent="false"/>
          <y:BorderStyle color="#000000" type="line" width="1.0"/>
          <y:NodeLabel alignment="center" autoSizePolicy="content" fontFamily="Dialog" fontSize="12" fontStyle="plain" hasBackgroundColor="false" hasLineColor="false" height="33.40234375" modelName="internal" modelPosition="c" textColor="#000000" visible="true" width="135.396484375" x="18.911489771262495" y="24.53750853737114">{PREPEND_STATE}033
Delete{CLASS_NAME}</y:NodeLabel>
          <y:Shape type="roundrectangle"/>
        </y:ShapeNode>
      </data>
    </node>
    <node id="n41">
      <data key="d3">
        <y:ShapeNode>
          <y:Geometry height="30.0" width="30.0" x="4607.334643624351" y="135.05551835317453"/>
          <y:Fill color="#00CCFF" transparent="false"/>
          <y:BorderStyle color="#000000" type="line" width="1.0"/>
          <y:NodeLabel alignment="center" autoSizePolicy="content" fontFamily="Dialog" fontSize="12" fontStyle="plain" hasBackgroundColor="false" hasLineColor="false" height="18.701171875" modelName="internal" modelPosition="c" textColor="#000000" visible="true" width="17.34765625" x="6.326171875" y="5.6494140625">93</y:NodeLabel>
          <y:Shape type="ellipse"/>
        </y:ShapeNode>
      </data>
    </node>
    <node id="n42">
      <data key="d3">
        <y:ShapeNode>
          <y:Geometry height="71.0" width="173.2194639175259" x="5137.281289645614" y="168.65234375"/>
          <y:Fill color="#FFCC00" transparent="false"/>
          <y:BorderStyle color="#000000" type="line" width="1.0"/>
          <y:NodeLabel alignment="center" autoSizePolicy="content" fontFamily="Dialog" fontSize="12" fontStyle="plain" hasBackgroundColor="false" hasLineColor="false" height="62.8046875" modelName="internal" modelPosition="c" textColor="#000000" visible="true" width="166.064453125" x="3.577505396262495" y="4.09765625">{PREPEND_STATE}034
SetError
name:SetError-DeleteSuccess
errorId:3</y:NodeLabel>
          <y:Shape type="roundrectangle"/>
        </y:ShapeNode>
      </data>
    </node>
    <node id="n43">
      <data key="d3">
        <y:ShapeNode>
          <y:Geometry height="71.0" width="173.2194639175259" x="5137.281289645614" y="17.65234375"/>
          <y:Fill color="#FFCC00" transparent="false"/>
          <y:BorderStyle color="#000000" type="line" width="1.0"/>
          <y:NodeLabel alignment="center" autoSizePolicy="content" fontFamily="Dialog" fontSize="12" fontStyle="plain" hasBackgroundColor="false" hasLineColor="false" height="62.8046875" modelName="internal" modelPosition="c" textColor="#000000" visible="true" width="153.396484375" x="9.911489771262495" y="4.09765625">{PREPEND_STATE}035
SetError
name:SetError-DeleteFailed
errorId:4</y:NodeLabel>
          <y:Shape type="roundrectangle"/>
        </y:ShapeNode>
      </data>
    </node>
    <node id="n44">
      <data key="d3">
        <y:ShapeNode>
          <y:Geometry height="30.0" width="30.0" x="7545.143703727309" y="401.30234375"/>
          <y:Fill color="#00CCFF" transparent="false"/>
          <y:BorderStyle color="#000000" type="line" width="1.0"/>
          <y:NodeLabel alignment="center" autoSizePolicy="content" fontFamily="Dialog" fontSize="12" fontStyle="plain" hasBackgroundColor="false" hasLineColor="false" height="18.701171875" modelName="internal" modelPosition="c" textColor="#000000" visible="true" width="17.34765625" x="6.326171875" y="5.6494140625">93</y:NodeLabel>
          <y:Shape type="ellipse"/>
        </y:ShapeNode>
      </data>
    </node>
    <edge id="e0" source="n1" target="n2">
      <data key="d6">
        <y:PolyLineEdge>
          <y:Path sx="56.0" sy="-17.75" tx="-15.0" ty="-0.0">
            <y:Point x="195.396484375" y="99.0136532738095"/>
            <y:Point x="195.396484375" y="54.58489273313489"/>
          </y:Path>
          <y:LineStyle color="#000000" type="line" width="1.0"/>
          <y:Arrows source="none" target="standard"/>
          <y:EdgeLabel alignment="center" distance="2.0" fontFamily="Dialog" fontSize="12" fontStyle="plain" hasBackgroundColor="false" hasLineColor="false" height="18.701171875" modelName="side_slider" preferredPlacement="right" ratio="0.41420584279768347" textColor="#000000" visible="true" width="17.34765625" x="127.3529296875" y="-42.4287181306138">no</y:EdgeLabel>
          <y:BendStyle smoothed="false"/>
        </y:PolyLineEdge>
      </data>
    </edge>
    <edge id="e1" source="n1" target="n3">
      <data key="d6">
        <y:PolyLineEdge>
          <y:Path sx="56.0" sy="17.75" tx="-124.72756092869673" ty="-0.0">
            <y:Point x="195.396484375" y="134.5136532738095"/>
            <y:Point x="195.396484375" y="176.19203559027767"/>
          </y:Path>
          <y:LineStyle color="#000000" type="line" width="1.0"/>
          <y:Arrows source="none" target="standard"/>
          <y:EdgeLabel alignment="center" distance="2.0" fontFamily="Dialog" fontSize="12" fontStyle="plain" hasBackgroundColor="false" hasLineColor="false" height="18.701171875" modelName="side_slider" preferredPlacement="right" ratio="0.6360356860720688" textColor="#000000" visible="true" width="22.673828125" x="140.50668705734427" y="43.678469071646475">yes</y:EdgeLabel>
          <y:BendStyle smoothed="false"/>
        </y:PolyLineEdge>
      </data>
    </edge>
    <edge id="e2" source="n3" target="n4">
      <data key="d6">
        <y:PolyLineEdge>
          <y:Path sx="124.72756092869668" sy="-13.303564912280649" tx="-15.0" ty="-0.0">
            <y:Point x="746.21484375" y="162.8886597901004"/>
            <y:Point x="746.21484375" y="64.22239273313482"/>
          </y:Path>
          <y:LineStyle color="#000000" type="line" width="1.0"/>
          <y:Arrows source="none" target="standard"/>
          <y:EdgeLabel alignment="center" distance="2.0" fontFamily="Dialog" fontSize="12" fontStyle="plain" hasBackgroundColor="false" hasLineColor="false" height="18.701171875" modelName="side_slider" preferredPlacement="right" ratio="0.5935858760456771" textColor="#000000" visible="true" width="17.34765625" x="164.32139711758987" y="-96.66620791514673">no</y:EdgeLabel>
          <y:BendStyle smoothed="false"/>
        </y:PolyLineEdge>
      </data>
    </edge>
    <edge id="e3" source="n3" target="n0">
      <data key="d6">
        <y:PolyLineEdge>
          <y:Path sx="124.72756092869668" sy="13.303564912280649" tx="-116.7055103453597" ty="-0.0">
            <y:Point x="746.21484375" y="189.4957896146617"/>
            <y:Point x="746.21484375" y="211.42834511408728"/>
          </y:Path>
          <y:LineStyle color="#000000" type="line" width="1.0"/>
          <y:Arrows source="none" target="standard"/>
          <y:EdgeLabel alignment="center" distance="2.0" fontFamily="Dialog" fontSize="12" fontStyle="plain" hasBackgroundColor="false" hasLineColor="false" height="18.701171875" modelName="side_slider" preferredPlacement="right" ratio="0.738857528917624" textColor="#000000" visible="true" width="22.673828125" x="164.7822265625" y="23.932660075308235">yes</y:EdgeLabel>
          <y:BendStyle smoothed="false"/>
        </y:PolyLineEdge>
      </data>
    </edge>
    <edge id="e4" source="n6" target="n7">
      <data key="d6">
        <y:PolyLineEdge>
          <y:Path sx="56.0" sy="-23.66666666666663" tx="-15.0" ty="-0.0">
            <y:Point x="1516.3621925657194" y="161.65908978174605"/>
            <y:Point x="1516.3621925657194" y="63.71842447916663"/>
          </y:Path>
          <y:LineStyle color="#000000" type="line" width="1.0"/>
          <y:Arrows source="none" target="standard"/>
          <y:EdgeLabel alignment="center" distance="2.0" fontFamily="Dialog" fontSize="12" fontStyle="plain" hasBackgroundColor="false" hasLineColor="false" height="18.701171875" modelName="side_slider" preferredPlacement="right" ratio="0.4833838163916467" textColor="#000000" visible="true" width="17.34765625" x="127.3529396360318" y="-95.94061790313675">no</y:EdgeLabel>
          <y:BendStyle smoothed="false"/>
        </y:PolyLineEdge>
      </data>
    </edge>
    <edge id="e5" source="n6" target="n10">
      <data key="d6">
        <y:PolyLineEdge>
          <y:Path sx="56.0" sy="-0.0" tx="-116.56328497852996" ty="-0.0"/>
          <y:LineStyle color="#000000" type="line" width="1.0"/>
          <y:Arrows source="none" target="standard"/>
          <y:EdgeLabel alignment="center" distance="2.0" fontFamily="Dialog" fontSize="12" fontStyle="plain" hasBackgroundColor="false" hasLineColor="false" height="18.701171875" modelName="side_slider" preferredPlacement="right" ratio="0.5" textColor="#000000" visible="true" width="22.673828125" x="124.60362136551703" y="1.999996560717392">yes</y:EdgeLabel>
          <y:BendStyle smoothed="false"/>
        </y:PolyLineEdge>
      </data>
    </edge>
    <edge id="e6" source="n8" target="n9">
      <data key="d6">
        <y:PolyLineEdge>
          <y:Path sx="86.60973195876295" sy="-20.619340206185598" tx="-15.0" ty="-0.0">
            <y:Point x="2383.0738439832458" y="164.70641624222708"/>
            <y:Point x="2383.0738439832458" y="132.94540860615075"/>
          </y:Path>
          <y:LineStyle color="#000000" type="line" width="1.0"/>
          <y:Arrows source="none" target="standard"/>
          <y:EdgeLabel alignment="center" distance="2.0" fontFamily="Dialog" fontSize="12" fontStyle="plain" hasBackgroundColor="false" hasLineColor="false" height="18.701171875" modelName="side_slider" preferredPlacement="right" ratio="0.38267625463823535" textColor="#000000" visible="true" width="29.3359375" x="124.68770956346452" y="-29.760957925340307">error</y:EdgeLabel>
          <y:BendStyle smoothed="false"/>
        </y:PolyLineEdge>
      </data>
    </edge>
    <edge id="e7" source="n8" target="n5">
      <data key="d6">
        <y:PolyLineEdge>
          <y:Path sx="86.60973195876295" sy="20.619340206185598" tx="-116.70551034535947" ty="-26.102804215905167">
            <y:Point x="2548.4234533582458" y="205.94503038194443"/>
            <y:Point x="2548.4234533582458" y="254.04874588330097"/>
          </y:Path>
          <y:LineStyle color="#000000" type="line" width="1.0"/>
          <y:Arrows source="none" target="standard"/>
          <y:EdgeLabel alignment="center" distance="2.0" fontFamily="Dialog" fontSize="12" fontStyle="plain" hasBackgroundColor="false" hasLineColor="false" height="48.103515625" modelName="side_slider" preferredPlacement="right" ratio="0.4573230299517948" textColor="#000000" visible="true" width="45.349609375" x="122.70844684782924" y="1.9999616905761854">zero
one
multiple</y:EdgeLabel>
          <y:BendStyle smoothed="false"/>
        </y:PolyLineEdge>
      </data>
    </edge>
    <edge id="e8" source="n10" target="n8">
      <data key="d6">
        <y:PolyLineEdge>
          <y:Path sx="116.56328497852996" sy="-0.0" tx="-86.60973195876295" ty="-0.0"/>
          <y:LineStyle color="#000000" type="line" width="1.0"/>
          <y:Arrows source="none" target="standard"/>
          <y:EdgeLabel alignment="center" distance="2.0" fontFamily="Dialog" fontSize="12" fontStyle="plain" hasBackgroundColor="false" hasLineColor="false" height="18.701171875" modelName="side_slider" preferredPlacement="right" ratio="0.7142857142857142" textColor="#000000" visible="true" width="22.673828125" x="122.45278375378211" y="1.9999965607174204">yes</y:EdgeLabel>
          <y:BendStyle smoothed="false"/>
        </y:PolyLineEdge>
      </data>
    </edge>
    <edge id="e9" source="n0" target="n6">
      <data key="d6">
        <y:PolyLineEdge>
          <y:Path sx="116.7055103453597" sy="-26.102804215905167" tx="-56.0" ty="-0.0"/>
          <y:LineStyle color="#000000" type="line" width="1.0"/>
          <y:Arrows source="none" target="standard"/>
          <y:EdgeLabel alignment="center" distance="2.0" fontFamily="Dialog" fontSize="12" fontStyle="plain" hasBackgroundColor="false" hasLineColor="false" height="18.701171875" modelName="side_slider" preferredPlacement="right" ratio="0.6666666666666666" textColor="#000000" visible="true" width="18.666015625" x="124.4238380735319" y="2.0000186233917816">list</y:EdgeLabel>
          <y:BendStyle smoothed="false"/>
        </y:PolyLineEdge>
      </data>
    </edge>
    <edge id="e10" source="n12" target="n11">
      <data key="d6">
        <y:PolyLineEdge>
          <y:Path sx="86.6097319587625" sy="20.61934020618554" tx="-116.70551034535947" ty="-26.102804215905138">
            <y:Point x="4290.9435864039915" y="445.2980728450744"/>
            <y:Point x="4290.9435864039915" y="715.1196149553571"/>
            <y:Point x="4445.6291332789915" y="715.1196149553571"/>
            <y:Point x="4445.6291332789915" y="733.8209681055234"/>
          </y:Path>
          <y:LineStyle color="#000000" type="line" width="1.0"/>
          <y:Arrows source="none" target="standard"/>
          <y:EdgeLabel alignment="center" distance="2.0" fontFamily="Dialog" fontSize="12" fontStyle="plain" hasBackgroundColor="false" hasLineColor="false" height="18.701171875" modelName="side_slider" preferredPlacement="right" ratio="0.7587878969539952" textColor="#000000" visible="true" width="24.021484375" x="138.19866452899169" y="271.8215497698102">one</y:EdgeLabel>
          <y:BendStyle smoothed="false"/>
        </y:PolyLineEdge>
      </data>
    </edge>
    <edge id="e11" source="n12" target="n13">
      <data key="d6">
        <y:PolyLineEdge>
          <y:Path sx="86.6097319587625" sy="-20.619340206185598" tx="-15.0" ty="-0.0">
            <y:Point x="4350.9435864039915" y="404.05939243270325"/>
            <y:Point x="4350.9435864039915" y="422.53312562003964"/>
          </y:Path>
          <y:LineStyle color="#000000" type="line" width="1.0"/>
          <y:Arrows source="none" target="standard"/>
          <y:EdgeLabel alignment="center" distance="2.0" fontFamily="Dialog" fontSize="12" fontStyle="plain" hasBackgroundColor="false" hasLineColor="false" height="48.103515625" modelName="side_slider" preferredPlacement="right" ratio="0.34345101807418305" textColor="#000000" visible="true" width="45.349609375" x="121.0002270289915" y="20.473769237461795">zero
multiple
error</y:EdgeLabel>
          <y:BendStyle smoothed="false"/>
        </y:PolyLineEdge>
      </data>
    </edge>
    <edge id="e12" source="n14" target="n15">
      <data key="d6">
        <y:PolyLineEdge>
          <y:Path sx="56.0" sy="17.75" tx="-15.0" ty="-0.0">
            <y:Point x="3356.887208423965" y="455.00869295634914"/>
            <y:Point x="3356.887208423965" y="541.1156467013889"/>
          </y:Path>
          <y:LineStyle color="#000000" type="line" width="1.0"/>
          <y:Arrows source="none" target="standard"/>
          <y:EdgeLabel alignment="center" distance="2.0" fontFamily="Dialog" fontSize="12" fontStyle="plain" hasBackgroundColor="false" hasLineColor="false" height="18.701171875" modelName="side_slider" preferredPlacement="right" ratio="0.4998517784817494" textColor="#000000" visible="true" width="17.34765625" x="142.26757951771515" y="88.10700339265759">no</y:EdgeLabel>
          <y:BendStyle smoothed="false"/>
        </y:PolyLineEdge>
      </data>
    </edge>
    <edge id="e13" source="n14" target="n16">
      <data key="d6">
        <y:PolyLineEdge>
          <y:Path sx="56.0" sy="-17.75" tx="-124.4416164837885" ty="-0.0"/>
          <y:LineStyle color="#000000" type="line" width="1.0"/>
          <y:Arrows source="none" target="standard"/>
          <y:EdgeLabel alignment="center" distance="2.0" fontFamily="Dialog" fontSize="12" fontStyle="plain" hasBackgroundColor="false" hasLineColor="false" height="18.701171875" modelName="side_slider" preferredPlacement="right" ratio="0.5" textColor="#000000" visible="true" width="22.673828125" x="123.1664001820709" y="1.9999954465835117">yes</y:EdgeLabel>
          <y:BendStyle smoothed="false"/>
        </y:PolyLineEdge>
      </data>
    </edge>
    <edge id="e14" source="n16" target="n17">
      <data key="d6">
        <y:PolyLineEdge>
          <y:Path sx="124.4416164837885" sy="13.303564912280649" tx="-15.0" ty="-0.0">
            <y:Point x="3910.043458423965" y="432.8122578686298"/>
            <y:Point x="3910.043458423965" y="560.9174324156745"/>
          </y:Path>
          <y:LineStyle color="#000000" type="line" width="1.0"/>
          <y:Arrows source="none" target="standard"/>
          <y:EdgeLabel alignment="center" distance="2.0" fontFamily="Dialog" fontSize="12" fontStyle="plain" hasBackgroundColor="false" hasLineColor="false" height="18.701171875" modelName="side_slider" preferredPlacement="right" ratio="0.6933306893594234" textColor="#000000" visible="true" width="17.34765625" x="177.35287000982225" y="130.1052522181874">no</y:EdgeLabel>
          <y:BendStyle smoothed="false"/>
        </y:PolyLineEdge>
      </data>
    </edge>
    <edge id="e15" source="n16" target="n12">
      <data key="d6">
        <y:PolyLineEdge>
          <y:Path sx="124.4416164837885" sy="-13.303564912280649" tx="-86.60973195876295" ty="-0.0">
            <y:Point x="3970.043458423965" y="406.2051280440685"/>
            <y:Point x="3970.043458423965" y="424.67854352678563"/>
          </y:Path>
          <y:LineStyle color="#000000" type="line" width="1.0"/>
          <y:Arrows source="none" target="standard"/>
          <y:EdgeLabel alignment="center" distance="2.0" fontFamily="Dialog" fontSize="12" fontStyle="plain" hasBackgroundColor="false" hasLineColor="false" height="18.701171875" modelName="side_slider" preferredPlacement="right" ratio="0.6917798849492646" textColor="#000000" visible="true" width="22.673828125" x="167.96460100209015" y="20.47345542700259">yes</y:EdgeLabel>
          <y:BendStyle smoothed="false"/>
        </y:PolyLineEdge>
      </data>
    </edge>
    <edge id="e16" source="n18" target="n19">
      <data key="d6">
        <y:PolyLineEdge>
          <y:Path sx="110.92333879421221" sy="-20.61934020618554" tx="-15.0" ty="-0.0"/>
          <y:LineStyle color="#000000" type="line" width="1.0"/>
          <y:Arrows source="none" target="standard"/>
          <y:EdgeLabel alignment="center" distance="2.0" fontFamily="Dialog" fontSize="12" fontStyle="plain" hasBackgroundColor="false" hasLineColor="false" height="18.701171875" modelName="side_slider" preferredPlacement="right" ratio="0.42857142857142855" textColor="#000000" visible="true" width="29.3359375" x="106.56600967795475" y="2.000162228778663">error</y:EdgeLabel>
          <y:BendStyle smoothed="false"/>
        </y:PolyLineEdge>
      </data>
    </edge>
    <edge id="e17" source="n20" target="n21">
      <data key="d6">
        <y:PolyLineEdge>
          <y:Path sx="56.0" sy="17.75" tx="-15.0" ty="-0.0">
            <y:Point x="5491.600005979377" y="777.6735832093253"/>
            <y:Point x="5491.600005979377" y="781.374962797619"/>
          </y:Path>
          <y:LineStyle color="#000000" type="line" width="1.0"/>
          <y:Arrows source="none" target="standard"/>
          <y:EdgeLabel alignment="center" distance="2.0" fontFamily="Dialog" fontSize="12" fontStyle="plain" hasBackgroundColor="false" hasLineColor="false" height="18.701171875" modelName="side_slider" preferredPlacement="right" ratio="0.3980824425981787" textColor="#000000" visible="true" width="17.34765625" x="138.3903380106276" y="1.9998816123378447">no</y:EdgeLabel>
          <y:BendStyle smoothed="false"/>
        </y:PolyLineEdge>
      </data>
    </edge>
    <edge id="e18" source="n20" target="n22">
      <data key="d6">
        <y:PolyLineEdge>
          <y:Path sx="56.0" sy="-17.75" tx="-112.62906814417511" ty="-0.0">
            <y:Point x="5351.589263791878" y="742.1737723214285"/>
            <y:Point x="5351.589263791878" y="659.767630828373"/>
          </y:Path>
          <y:LineStyle color="#000000" type="line" width="1.0"/>
          <y:Arrows source="none" target="standard"/>
          <y:EdgeLabel alignment="center" distance="2.0" fontFamily="Dialog" fontSize="12" fontStyle="plain" hasBackgroundColor="false" hasLineColor="false" height="18.701171875" modelName="side_slider" preferredPlacement="right" ratio="0.5927259866090028" textColor="#000000" visible="true" width="22.673828125" x="120.59877389800567" y="-80.40606907096605">yes</y:EdgeLabel>
          <y:BendStyle smoothed="false"/>
        </y:PolyLineEdge>
      </data>
    </edge>
    <edge id="e19" source="n22" target="n23">
      <data key="d6">
        <y:PolyLineEdge>
          <y:Path sx="112.62906814417511" sy="13.303564912280706" tx="-15.0" ty="-0.0">
            <y:Point x="5897.075591916877" y="673.0713848527569"/>
            <y:Point x="5897.075591916877" y="711.6180276537698"/>
          </y:Path>
          <y:LineStyle color="#000000" type="line" width="1.0"/>
          <y:Arrows source="none" target="standard"/>
          <y:EdgeLabel alignment="center" distance="2.0" fontFamily="Dialog" fontSize="12" fontStyle="plain" hasBackgroundColor="false" hasLineColor="false" height="18.701171875" modelName="side_slider" preferredPlacement="right" ratio="0.454980418520365" textColor="#000000" visible="true" width="17.34765625" x="172.76908130959237" y="40.54665988754243">no</y:EdgeLabel>
          <y:BendStyle smoothed="false"/>
        </y:PolyLineEdge>
      </data>
    </edge>
    <edge id="e20" source="n22" target="n34">
      <data key="d6">
        <y:PolyLineEdge>
          <y:Path sx="112.62906814417511" sy="-13.303564912280706" tx="-123.42191738614838" ty="14.485906932573585">
            <y:Point x="5897.075591916877" y="646.4642550281955"/>
            <y:Point x="5897.075591916877" y="624.2983847966269"/>
            <y:Point x="6039.749420041877" y="624.2983847966269"/>
            <y:Point x="6039.749420041877" y="602.1322983016212"/>
          </y:Path>
          <y:LineStyle color="#000000" type="line" width="1.0"/>
          <y:Arrows source="none" target="standard"/>
          <y:EdgeLabel alignment="center" distance="2.0" fontFamily="Dialog" fontSize="12" fontStyle="plain" hasBackgroundColor="false" hasLineColor="false" height="18.701171875" modelName="side_slider" preferredPlacement="right" ratio="0.5435098290874513" textColor="#000000" visible="true" width="22.673828125" x="166.9772520731267" y="-20.16584860181058">yes</y:EdgeLabel>
          <y:BendStyle smoothed="false"/>
        </y:PolyLineEdge>
      </data>
    </edge>
    <edge id="e21" source="n11" target="n20">
      <data key="d6">
        <y:PolyLineEdge>
          <y:Path sx="116.70551034535947" sy="-0.0" tx="-56.0" ty="-0.0"/>
          <y:LineStyle color="#000000" type="line" width="1.0"/>
          <y:Arrows source="none" target="standard"/>
          <y:EdgeLabel alignment="center" distance="2.0" fontFamily="Dialog" fontSize="12" fontStyle="plain" hasBackgroundColor="false" hasLineColor="false" height="18.701171875" modelName="side_slider" preferredPlacement="right" ratio="0.3333333333333333" textColor="#000000" visible="true" width="29.34765625" x="136.5428520354326" y="2.000005231584737">save</y:EdgeLabel>
          <y:BendStyle smoothed="false"/>
        </y:PolyLineEdge>
      </data>
    </edge>
    <edge id="e22" source="n18" target="n24">
      <data key="d6">
        <y:PolyLineEdge>
          <y:Path sx="110.92333879421221" sy="20.61934020618554" tx="-86.6097319587625" ty="-0.0">
            <y:Point x="7731.067042521521" y="573.1605728450744"/>
            <y:Point x="7731.067042521521" y="698.4523530505952"/>
          </y:Path>
          <y:LineStyle color="#000000" type="line" width="1.0"/>
          <y:Arrows source="none" target="standard"/>
          <y:EdgeLabel alignment="center" distance="2.0" fontFamily="Dialog" fontSize="12" fontStyle="plain" hasBackgroundColor="false" hasLineColor="false" height="18.701171875" modelName="side_slider" preferredPlacement="right" ratio="0.8149404606537495" textColor="#000000" visible="true" width="16.673828125" x="126.83217924027122" y="127.29187998407815">ok</y:EdgeLabel>
          <y:BendStyle smoothed="false"/>
        </y:PolyLineEdge>
      </data>
    </edge>
    <edge id="e23" source="n24" target="n25">
      <data key="d6">
        <y:PolyLineEdge>
          <y:Path sx="86.6097319587625" sy="-20.61934020618554" tx="-15.0" ty="-0.0"/>
          <y:LineStyle color="#000000" type="line" width="1.0"/>
          <y:Arrows source="none" target="standard"/>
          <y:EdgeLabel alignment="center" distance="2.0" fontFamily="Dialog" fontSize="12" fontStyle="plain" hasBackgroundColor="false" hasLineColor="false" height="18.701171875" modelName="side_slider" preferredPlacement="right" ratio="0.4" textColor="#000000" visible="true" width="29.3359375" x="126.62727422255193" y="2.000144916199247">error</y:EdgeLabel>
          <y:BendStyle smoothed="false"/>
        </y:PolyLineEdge>
      </data>
    </edge>
    <edge id="e24" source="n24" target="n28">
      <data key="d6">
        <y:PolyLineEdge>
          <y:Path sx="86.6097319587625" sy="20.61934020618557" tx="-86.6097319587625" ty="-17.75">
            <y:Point x="8107.291389251547" y="719.071882368884"/>
            <y:Point x="8107.291389251547" y="754.827749875992"/>
            <y:Point x="8256.627326751546" y="754.827749875992"/>
            <y:Point x="8256.627326751546" y="820.874962797619"/>
          </y:Path>
          <y:LineStyle color="#000000" type="line" width="1.0"/>
          <y:Arrows source="none" target="standard"/>
          <y:EdgeLabel alignment="center" distance="2.0" fontFamily="Dialog" fontSize="12" fontStyle="plain" hasBackgroundColor="false" hasLineColor="false" height="18.701171875" modelName="side_slider" preferredPlacement="right" ratio="0.4873081342826243" textColor="#000000" visible="true" width="16.673828125" x="135.6346509702962" y="37.755850461929526">ok</y:EdgeLabel>
          <y:BendStyle smoothed="false"/>
        </y:PolyLineEdge>
      </data>
    </edge>
    <edge id="e25" source="n26" target="n18">
      <data key="d6">
        <y:PolyLineEdge>
          <y:Path sx="86.6097319587625" sy="-0.0" tx="-110.92333879421221" ty="20.61934020618554"/>
          <y:LineStyle color="#000000" type="line" width="1.0"/>
          <y:Arrows source="none" target="standard"/>
          <y:EdgeLabel alignment="center" distance="2.0" fontFamily="Dialog" fontSize="12" fontStyle="plain" hasBackgroundColor="false" hasLineColor="false" height="18.701171875" modelName="side_slider" preferredPlacement="right" ratio="0.47368421052631576" textColor="#000000" visible="true" width="24.021484375" x="330.1916181659144" y="1.9999237109693695">one</y:EdgeLabel>
          <y:BendStyle smoothed="false"/>
        </y:PolyLineEdge>
      </data>
    </edge>
    <edge id="e26" source="n26" target="n27">
      <data key="d6">
        <y:PolyLineEdge>
          <y:Path sx="86.6097319587625" sy="27.492453608247445" tx="-15.0" ty="-0.0">
            <y:Point x="6789.1603749816995" y="600.6531306915807"/>
            <y:Point x="6789.1603749816995" y="666.8618861607142"/>
          </y:Path>
          <y:LineStyle color="#000000" type="line" width="1.0"/>
          <y:Arrows source="none" target="standard"/>
          <y:EdgeLabel alignment="center" distance="2.0" fontFamily="Dialog" fontSize="12" fontStyle="plain" hasBackgroundColor="false" hasLineColor="false" height="33.40234375" modelName="side_slider" preferredPlacement="right" ratio="0.48960225128087276" textColor="#000000" visible="true" width="45.349609375" x="111.4861110303118" y="68.20874524725059">multiple
error</y:EdgeLabel>
          <y:BendStyle smoothed="false"/>
        </y:PolyLineEdge>
      </data>
    </edge>
    <edge id="e27" source="n28" target="n11">
      <data key="d6">
        <y:PolyLineEdge>
          <y:Path sx="-86.6097319587625" sy="17.75" tx="116.70551034535947" ty="34.803738954540194">
            <y:Point x="4799.04015396971" y="856.374962797619"/>
            <y:Point x="4799.04015396971" y="794.7275112759687"/>
          </y:Path>
          <y:LineStyle color="#000000" type="line" width="1.0"/>
          <y:Arrows source="none" target="standard"/>
          <y:EdgeLabel alignment="center" distance="2.0" fontFamily="Dialog" fontSize="12" fontStyle="plain" hasBackgroundColor="false" hasLineColor="false" height="33.40234375" modelName="side_slider" preferredPlacement="right" ratio="0.45896442733315423" textColor="#000000" visible="true" width="29.3359375" x="-1686.4939923457705" y="-35.40231991722476">ok
error</y:EdgeLabel>
          <y:BendStyle smoothed="false"/>
        </y:PolyLineEdge>
      </data>
    </edge>
    <edge id="e28" source="n5" target="n14">
      <data key="d6">
        <y:PolyLineEdge>
          <y:Path sx="116.70551034535947" sy="20.882243372724133" tx="-56.0" ty="-0.0">
            <y:Point x="2961.834474048965" y="301.03379347193027"/>
            <y:Point x="2961.834474048965" y="437.258503844246"/>
          </y:Path>
          <y:LineStyle color="#000000" type="line" width="1.0"/>
          <y:Arrows source="none" target="standard"/>
          <y:EdgeLabel alignment="center" distance="2.0" fontFamily="Dialog" fontSize="12" fontStyle="plain" hasBackgroundColor="false" hasLineColor="false" height="18.701171875" modelName="side_slider" preferredPlacement="right" ratio="0.7428172725851923" textColor="#000000" visible="true" width="23.34765625" x="196.7772056337867" y="138.22481049945975">edit</y:EdgeLabel>
          <y:BendStyle smoothed="false"/>
        </y:PolyLineEdge>
      </data>
    </edge>
    <edge id="e29" source="n26" target="n29">
      <data key="d6">
        <y:PolyLineEdge>
          <y:Path sx="86.6097319587625" sy="-27.492453608247445" tx="-117.18868638194817" ty="-0.0">
            <y:Point x="6789.1603749816995" y="545.6682234750858"/>
            <y:Point x="6789.1603749816995" y="471.92159908234123"/>
          </y:Path>
          <y:LineStyle color="#000000" type="line" width="1.0"/>
          <y:Arrows source="none" target="standard"/>
          <y:EdgeLabel alignment="center" distance="2.0" fontFamily="Dialog" fontSize="12" fontStyle="plain" hasBackgroundColor="false" hasLineColor="false" height="18.701171875" modelName="side_slider" preferredPlacement="right" ratio="0.7292159168943675" textColor="#000000" visible="true" width="27.34375" x="119.90988670044953" y="-71.74650823381421">zero</y:EdgeLabel>
          <y:BendStyle smoothed="false"/>
        </y:PolyLineEdge>
      </data>
    </edge>
    <edge id="e30" source="n29" target="n18">
      <data key="d6">
        <y:PolyLineEdge>
          <y:Path sx="117.18868638194817" sy="20.61934020618554" tx="-110.92333879421221" ty="-20.61934020618554">
            <y:Point x="7239.884427433097" y="492.54112840062993"/>
            <y:Point x="7239.884427433097" y="502.8809244791666"/>
            <y:Point x="7389.220364933097" y="502.8809244791666"/>
            <y:Point x="7389.220364933097" y="531.9218924327033"/>
          </y:Path>
          <y:LineStyle color="#000000" type="line" width="1.0"/>
          <y:Arrows source="none" target="standard"/>
          <y:EdgeLabel alignment="center" distance="2.0" fontFamily="Dialog" fontSize="12" fontStyle="plain" hasBackgroundColor="false" hasLineColor="false" height="18.701171875" modelName="side_slider" preferredPlacement="right" ratio="0.43108525517558804" textColor="#000000" visible="true" width="16.673828125" x="116.96890008934679" y="12.339786783854095">ok</y:EdgeLabel>
          <y:BendStyle smoothed="false"/>
        </y:PolyLineEdge>
      </data>
    </edge>
    <edge id="e31" source="n30" target="n31">
      <data key="d6">
        <y:PolyLineEdge>
          <y:Path sx="56.0" sy="17.75" tx="-134.96879751472125" ty="-0.0">
            <y:Point x="3356.887208423965" y="686.615835813492"/>
            <y:Point x="3356.887208423965" y="772.7227895585318"/>
          </y:Path>
          <y:LineStyle color="#000000" type="line" width="1.0"/>
          <y:Arrows source="none" target="standard"/>
          <y:EdgeLabel alignment="center" distance="2.0" fontFamily="Dialog" fontSize="12" fontStyle="plain" hasBackgroundColor="false" hasLineColor="false" height="18.701171875" modelName="side_slider" preferredPlacement="right" ratio="0.6370693894466908" textColor="#000000" visible="true" width="22.673828125" x="123.69236836697473" y="88.10702043172671">yes</y:EdgeLabel>
          <y:BendStyle smoothed="false"/>
        </y:PolyLineEdge>
      </data>
    </edge>
    <edge id="e32" source="n0" target="n30">
      <data key="d6">
        <y:PolyLineEdge>
          <y:Path sx="116.7055103453597" sy="26.102804215905167" tx="-56.0" ty="17.75">
            <y:Point x="1182.2996925657194" y="237.5313384420955"/>
            <y:Point x="1182.2996925657194" y="686.615835813492"/>
          </y:Path>
          <y:LineStyle color="#000000" type="line" width="1.0"/>
          <y:Arrows source="none" target="standard"/>
          <y:EdgeLabel alignment="center" distance="2.0" fontFamily="Dialog" fontSize="12" fontStyle="plain" hasBackgroundColor="false" hasLineColor="false" height="18.701171875" modelName="side_slider" preferredPlacement="right" ratio="0.5797139712250234" textColor="#000000" visible="true" width="26.013671875" x="986.4608213254642" y="451.08449426075765">new</y:EdgeLabel>
          <y:BendStyle smoothed="false"/>
        </y:PolyLineEdge>
      </data>
    </edge>
    <edge id="e33" source="n31" target="n11">
      <data key="d6">
        <y:PolyLineEdge>
          <y:Path sx="134.96879751472125" sy="13.303564912280677" tx="-116.70551034535947" ty="26.102804215905138"/>
          <y:LineStyle color="#000000" type="line" width="1.0"/>
          <y:Arrows source="none" target="standard"/>
          <y:EdgeLabel alignment="center" distance="2.0" fontFamily="Dialog" fontSize="12" fontStyle="plain" hasBackgroundColor="false" hasLineColor="false" height="18.701171875" modelName="side_slider" preferredPlacement="right" ratio="0.47368421052631576" textColor="#000000" visible="true" width="22.673828125" x="317.59313800942255" y="2.000009493593552">yes</y:EdgeLabel>
          <y:BendStyle smoothed="false"/>
        </y:PolyLineEdge>
      </data>
    </edge>
    <edge id="e34" source="n30" target="n32">
      <data key="d6">
        <y:PolyLineEdge>
          <y:Path sx="56.0" sy="-17.75" tx="-15.0" ty="-0.0"/>
          <y:LineStyle color="#000000" type="line" width="1.0"/>
          <y:Arrows source="none" target="standard"/>
          <y:EdgeLabel alignment="center" distance="2.0" fontFamily="Dialog" fontSize="12" fontStyle="plain" hasBackgroundColor="false" hasLineColor="false" height="18.701171875" modelName="side_slider" preferredPlacement="right" ratio="0.3684210526315789" textColor="#000000" visible="true" width="17.34765625" x="135.7015330538993" y="1.9999910869295263">no</y:EdgeLabel>
          <y:BendStyle smoothed="false"/>
        </y:PolyLineEdge>
      </data>
    </edge>
    <edge id="e35" source="n31" target="n33">
      <data key="d6">
        <y:PolyLineEdge>
          <y:Path sx="134.96879751472125" sy="-13.303564912280677" tx="-15.0" ty="-0.0">
            <y:Point x="3917.713380298965" y="759.4194137583542"/>
            <y:Point x="3917.713380298965" y="711.0259641617063"/>
          </y:Path>
          <y:LineStyle color="#000000" type="line" width="1.0"/>
          <y:Arrows source="none" target="standard"/>
          <y:EdgeLabel alignment="center" distance="2.0" fontFamily="Dialog" fontSize="12" fontStyle="plain" hasBackgroundColor="false" hasLineColor="false" height="18.701171875" modelName="side_slider" preferredPlacement="right" ratio="0.5901746323566923" textColor="#000000" visible="true" width="17.34765625" x="160.05176863659426" y="-46.39340393552391">no</y:EdgeLabel>
          <y:BendStyle smoothed="false"/>
        </y:PolyLineEdge>
      </data>
    </edge>
    <edge id="e36" source="n34" target="n26">
      <data key="d6">
        <y:PolyLineEdge>
          <y:Path sx="123.42191738614838" sy="-14.485906932573585" tx="-86.6097319587625" ty="-0.0"/>
          <y:LineStyle color="#000000" type="line" width="1.0"/>
          <y:Arrows source="none" target="standard"/>
          <y:EdgeLabel alignment="center" distance="2.0" fontFamily="Dialog" fontSize="12" fontStyle="plain" hasBackgroundColor="false" hasLineColor="false" height="18.701171875" modelName="side_slider" preferredPlacement="right" ratio="0.6000000000000001" textColor="#000000" visible="true" width="29.34765625" x="105.974993095424" y="2.000147537927319">pass</y:EdgeLabel>
          <y:BendStyle smoothed="false"/>
        </y:PolyLineEdge>
      </data>
    </edge>
    <edge id="e37" source="n34" target="n35">
      <data key="d6">
        <y:PolyLineEdge>
          <y:Path sx="123.42191738614838" sy="14.485906932573585" tx="-15.0" ty="-0.0">
            <y:Point x="6406.593254814174" y="602.1322983016212"/>
            <y:Point x="6406.593254814174" y="709.399376860119"/>
          </y:Path>
          <y:LineStyle color="#000000" type="line" width="1.0"/>
          <y:Arrows source="none" target="standard"/>
          <y:EdgeLabel alignment="center" distance="2.0" fontFamily="Dialog" fontSize="12" fontStyle="plain" hasBackgroundColor="false" hasLineColor="false" height="18.701171875" modelName="side_slider" preferredPlacement="right" ratio="0.6182936801743252" textColor="#000000" visible="true" width="29.3359375" x="121.16547666501174" y="109.26713009935406">error</y:EdgeLabel>
          <y:BendStyle smoothed="false"/>
        </y:PolyLineEdge>
      </data>
    </edge>
    <edge id="e38" source="n34" target="n11">
      <data key="d6">
        <y:PolyLineEdge>
          <y:Path sx="-123.42191738614838" sy="-14.485906932573585" tx="116.70551034535947" ty="-34.803738954540194">
            <y:Point x="4799.04015396971" y="573.1606770833332"/>
            <y:Point x="4799.04015396971" y="725.1200333668883"/>
          </y:Path>
          <y:LineStyle color="#000000" type="line" width="1.0"/>
          <y:Arrows source="none" target="standard"/>
          <y:EdgeLabel alignment="center" distance="2.0" fontFamily="Dialog" fontSize="12" fontStyle="plain" hasBackgroundColor="false" hasLineColor="false" height="18.701171875" modelName="side_slider" preferredPlacement="right" ratio="0.4548800332787553" textColor="#000000" visible="true" width="19.33984375" x="-697.9750806046577" y="-20.701048346419043">fail</y:EdgeLabel>
          <y:BendStyle smoothed="false"/>
        </y:PolyLineEdge>
      </data>
    </edge>
    <edge id="e39" source="n36" target="n37">
      <data key="d6">
        <y:PolyLineEdge>
          <y:Path sx="56.0" sy="17.75" tx="-15.0" ty="-0.0"/>
          <y:LineStyle color="#000000" type="line" width="1.0"/>
          <y:Arrows source="none" target="standard"/>
          <y:EdgeLabel alignment="center" distance="2.0" fontFamily="Dialog" fontSize="12" fontStyle="plain" hasBackgroundColor="false" hasLineColor="false" height="18.701171875" modelName="side_slider" preferredPlacement="right" ratio="0.3684210526315789" textColor="#000000" visible="true" width="17.34765625" x="135.7015330538993" y="1.999999806237497">no</y:EdgeLabel>
          <y:BendStyle smoothed="false"/>
        </y:PolyLineEdge>
      </data>
    </edge>
    <edge id="e40" source="n36" target="n39">
      <data key="d6">
        <y:PolyLineEdge>
          <y:Path sx="56.0" sy="-17.75" tx="-116.56328497852974" ty="-0.0">
            <y:Point x="3356.887208423965" y="262.40155009920625"/>
            <y:Point x="3356.887208423965" y="176.2942181299603"/>
          </y:Path>
          <y:LineStyle color="#000000" type="line" width="1.0"/>
          <y:Arrows source="none" target="standard"/>
          <y:EdgeLabel alignment="center" distance="2.0" fontFamily="Dialog" fontSize="12" fontStyle="plain" hasBackgroundColor="false" hasLineColor="false" height="18.701171875" modelName="side_slider" preferredPlacement="right" ratio="0.5937716765411913" textColor="#000000" visible="true" width="22.673828125" x="121.666211264921" y="-84.10726521207164">yes</y:EdgeLabel>
          <y:BendStyle smoothed="false"/>
        </y:PolyLineEdge>
      </data>
    </edge>
    <edge id="e41" source="n39" target="n38">
      <data key="d6">
        <y:PolyLineEdge>
          <y:Path sx="116.56328497852974" sy="-0.0" tx="-86.60973195876295" ty="-0.0"/>
          <y:LineStyle color="#000000" type="line" width="1.0"/>
          <y:Arrows source="none" target="standard"/>
          <y:EdgeLabel alignment="center" distance="2.0" fontFamily="Dialog" fontSize="12" fontStyle="plain" hasBackgroundColor="false" hasLineColor="false" height="18.701171875" modelName="side_slider" preferredPlacement="right" ratio="0.7777777777777777" textColor="#000000" visible="true" width="22.673828125" x="180.89291671780484" y="2.000004165891653">yes</y:EdgeLabel>
          <y:BendStyle smoothed="false"/>
        </y:PolyLineEdge>
      </data>
    </edge>
    <edge id="e42" source="n5" target="n36">
      <data key="d6">
        <y:PolyLineEdge>
          <y:Path sx="116.70551034535947" sy="-0.0" tx="-56.0" ty="-0.0"/>
          <y:LineStyle color="#000000" type="line" width="1.0"/>
          <y:Arrows source="none" target="standard"/>
          <y:EdgeLabel alignment="center" distance="2.0" fontFamily="Dialog" fontSize="12" fontStyle="plain" hasBackgroundColor="false" hasLineColor="false" height="18.701171875" modelName="side_slider" preferredPlacement="right" ratio="0.5714285714285714" textColor="#000000" visible="true" width="36.6953125" x="166.88971958467937" y="1.9999998062374402">delete</y:EdgeLabel>
          <y:BendStyle smoothed="false"/>
        </y:PolyLineEdge>
      </data>
    </edge>
    <edge id="e43" source="n5" target="n30">
      <data key="d6">
        <y:PolyLineEdge>
          <y:Path sx="116.70551034535947" sy="41.764486745448266" tx="-56.0" ty="-17.75">
            <y:Point x="2901.834474048965" y="321.9160368446544"/>
            <y:Point x="2901.834474048965" y="632.4144562251984"/>
            <y:Point x="3113.188966236465" y="632.4144562251984"/>
            <y:Point x="3113.188966236465" y="651.115835813492"/>
          </y:Path>
          <y:LineStyle color="#000000" type="line" width="1.0"/>
          <y:Arrows source="none" target="standard"/>
          <y:EdgeLabel alignment="center" distance="2.0" fontFamily="Dialog" fontSize="12" fontStyle="plain" hasBackgroundColor="false" hasLineColor="false" height="18.701171875" modelName="side_slider" preferredPlacement="right" ratio="0.7976607362809638" textColor="#000000" visible="true" width="26.013671875" x="191.9284333123578" y="312.49841008262024">new</y:EdgeLabel>
          <y:BendStyle smoothed="false"/>
        </y:PolyLineEdge>
      </data>
    </edge>
    <edge id="e44" source="n5" target="n6">
      <data key="d6">
        <y:PolyLineEdge>
          <y:Path sx="-116.70551034535947" sy="26.102804215905167" tx="56.0" ty="23.66666666666663">
            <y:Point x="1516.3621925657194" y="306.2543278769841"/>
            <y:Point x="1516.3621925657194" y="208.9924231150793"/>
          </y:Path>
          <y:LineStyle color="#000000" type="line" width="1.0"/>
          <y:Arrows source="none" target="standard"/>
          <y:EdgeLabel alignment="center" distance="2.0" fontFamily="Dialog" fontSize="12" fontStyle="plain" hasBackgroundColor="false" hasLineColor="false" height="18.701171875" modelName="side_slider" preferredPlacement="right" ratio="0.4127628013874853" textColor="#000000" visible="true" width="18.666015625" x="-531.9383414332797" y="-20.701194452265156">list</y:EdgeLabel>
          <y:BendStyle smoothed="false"/>
        </y:PolyLineEdge>
      </data>
    </edge>
    <edge id="e45" source="n38" target="n40">
      <data key="d6">
        <y:PolyLineEdge>
          <y:Path sx="86.6097319587625" sy="20.619340206185598" tx="-86.6097319587625" ty="-0.0">
            <y:Point x="4290.9435864039915" y="196.91374744824907"/>
            <y:Point x="4290.9435864039915" y="286.29442584325386"/>
          </y:Path>
          <y:LineStyle color="#000000" type="line" width="1.0"/>
          <y:Arrows source="none" target="standard"/>
          <y:EdgeLabel alignment="center" distance="2.0" fontFamily="Dialog" fontSize="12" fontStyle="plain" hasBackgroundColor="false" hasLineColor="false" height="33.40234375" modelName="side_slider" preferredPlacement="right" ratio="0.5298308055423184" textColor="#000000" visible="true" width="45.349609375" x="108.07690600064052" y="91.38068012442676">one
multiple</y:EdgeLabel>
          <y:BendStyle smoothed="false"/>
        </y:PolyLineEdge>
      </data>
    </edge>
    <edge id="e46" source="n38" target="n41">
      <data key="d6">
        <y:PolyLineEdge>
          <y:Path sx="86.6097319587625" sy="-20.619340206185598" tx="-15.0" ty="-0.0">
            <y:Point x="4290.9435864039915" y="155.67506703587787"/>
            <y:Point x="4290.9435864039915" y="150.05553695436504"/>
          </y:Path>
          <y:LineStyle color="#000000" type="line" width="1.0"/>
          <y:Arrows source="none" target="standard"/>
          <y:EdgeLabel alignment="center" distance="2.0" fontFamily="Dialog" fontSize="12" fontStyle="plain" hasBackgroundColor="false" hasLineColor="false" height="33.40234375" modelName="side_slider" preferredPlacement="right" ratio="0.34301647975660143" textColor="#000000" visible="true" width="29.3359375" x="122.3180314112933" y="-3.6195307963230903">zero
error</y:EdgeLabel>
          <y:BendStyle smoothed="false"/>
        </y:PolyLineEdge>
      </data>
    </edge>
    <edge id="e47" source="n40" target="n42">
      <data key="d6">
        <y:PolyLineEdge>
          <y:Path sx="86.6097319587625" sy="20.619340206185598" tx="-86.6097319587625" ty="17.75">
            <y:Point x="4828.944375583114" y="306.91374744824907"/>
            <y:Point x="4828.944375583114" y="264.4079086061507"/>
            <y:Point x="5077.281289645614" y="264.4079086061507"/>
            <y:Point x="5077.281289645614" y="221.90234375"/>
          </y:Path>
          <y:LineStyle color="#000000" type="line" width="1.0"/>
          <y:Arrows source="none" target="standard"/>
          <y:EdgeLabel alignment="center" distance="2.0" fontFamily="Dialog" fontSize="12" fontStyle="plain" hasBackgroundColor="false" hasLineColor="false" height="18.701171875" modelName="side_slider" preferredPlacement="right" ratio="0.4255505420111716" textColor="#000000" visible="true" width="16.673828125" x="173.96991644849913" y="-40.50584871806802">ok</y:EdgeLabel>
          <y:BendStyle smoothed="false"/>
        </y:PolyLineEdge>
      </data>
    </edge>
    <edge id="e48" source="n40" target="n43">
      <data key="d6">
        <y:PolyLineEdge>
          <y:Path sx="86.6097319587625" sy="-20.619340206185598" tx="-86.6097319587625" ty="17.75">
            <y:Point x="4768.944375583114" y="265.6750670358779"/>
            <y:Point x="4768.944375583114" y="204.4678292410714"/>
            <y:Point x="5017.281289645614" y="204.4678292410714"/>
            <y:Point x="5017.281289645614" y="70.90234375"/>
          </y:Path>
          <y:LineStyle color="#000000" type="line" width="1.0"/>
          <y:Arrows source="none" target="standard"/>
          <y:EdgeLabel alignment="center" distance="2.0" fontFamily="Dialog" fontSize="12" fontStyle="plain" hasBackgroundColor="false" hasLineColor="false" height="18.701171875" modelName="side_slider" preferredPlacement="right" ratio="0.4199140265731304" textColor="#000000" visible="true" width="29.3359375" x="184.97130080632905" y="-59.207250104631726">error</y:EdgeLabel>
          <y:BendStyle smoothed="false"/>
        </y:PolyLineEdge>
      </data>
    </edge>
    <edge id="e49" source="n42" target="n5">
      <data key="d6">
        <y:PolyLineEdge>
          <y:Path sx="-86.6097319587625" sy="-17.75" tx="116.70551034535947" ty="-20.882243372724133">
            <y:Point x="4957.281289645614" y="186.40234375"/>
            <y:Point x="4957.281289645614" y="75.05551835317453"/>
            <y:Point x="4061.055177173965" y="75.05551835317453"/>
            <y:Point x="4061.055177173965" y="89.68724578373008"/>
            <y:Point x="2961.834474048965" y="89.68726438492058"/>
            <y:Point x="2961.834474048965" y="259.269306726482"/>
          </y:Path>
          <y:LineStyle color="#000000" type="line" width="1.0"/>
          <y:Arrows source="none" target="standard"/>
          <y:EdgeLabel alignment="center" distance="2.0" fontFamily="Dialog" fontSize="12" fontStyle="plain" hasBackgroundColor="false" hasLineColor="false" height="33.40234375" modelName="side_slider" preferredPlacement="right" ratio="0.4862228289700611" textColor="#000000" visible="true" width="29.3359375" x="-1162.722526362219" y="-132.1174407482468">ok
error</y:EdgeLabel>
          <y:BendStyle smoothed="false"/>
        </y:PolyLineEdge>
      </data>
    </edge>
    <edge id="e50" source="n43" target="n5">
      <data key="d6">
        <y:PolyLineEdge>
          <y:Path sx="-86.6097319587625" sy="-17.75" tx="116.70551034535947" ty="-41.764486745448266">
            <y:Point x="2901.834474048965" y="35.40234375"/>
            <y:Point x="2901.834474048965" y="238.38706335375787"/>
          </y:Path>
          <y:LineStyle color="#000000" type="line" width="1.0"/>
          <y:Arrows source="none" target="standard"/>
          <y:EdgeLabel alignment="center" distance="2.0" fontFamily="Dialog" fontSize="12" fontStyle="plain" hasBackgroundColor="false" hasLineColor="false" height="33.40234375" modelName="side_slider" preferredPlacement="right" ratio="0.4724445801115745" textColor="#000000" visible="true" width="29.3359375" x="-1194.6824434809114" y="-35.40234375">ok
error</y:EdgeLabel>
          <y:BendStyle smoothed="false"/>
        </y:PolyLineEdge>
      </data>
    </edge>
    <edge id="e51" source="n29" target="n44">
      <data key="d6">
        <y:PolyLineEdge>
          <y:Path sx="117.18868638194817" sy="-20.61934020618554" tx="-15.0" ty="-0.0">
            <y:Point x="7239.884427433097" y="451.30244798825885"/>
            <y:Point x="7239.884427433097" y="416.3021546378968"/>
          </y:Path>
          <y:LineStyle color="#000000" type="line" width="1.0"/>
          <y:Arrows source="none" target="standard"/>
          <y:EdgeLabel alignment="center" distance="2.0" fontFamily="Dialog" fontSize="12" fontStyle="plain" hasBackgroundColor="false" hasLineColor="false" height="18.701171875" modelName="side_slider" preferredPlacement="right" ratio="0.3970657343630131" textColor="#000000" visible="true" width="29.3359375" x="119.81492850194991" y="-33.000249830718985">error</y:EdgeLabel>
          <y:BendStyle smoothed="false"/>
        </y:PolyLineEdge>
      </data>
    </edge>
  </graph>
  <data key="d0">
    <y:Resources/>
  </data>
</graphml>
